%YAML 1.1
%TAG !u! tag:unity3d.com,2011:
--- !u!1001 &8847377643131503640
PrefabInstance:
  m_ObjectHideFlags: 0
  serializedVersion: 2
  m_Modification:
    serializedVersion: 3
    m_TransformParent: {fileID: 0}
    m_Modifications:
    - target: {fileID: -2253911629886400664, guid: 4a55370ffcc4cf04b8aa04bb1765eafb, type: 3}
      propertyPath: m_Name
      value: Goal
      objectReference: {fileID: 0}
    - target: {fileID: 7878350319992209165, guid: 4a55370ffcc4cf04b8aa04bb1765eafb, type: 3}
      propertyPath: m_LocalScale.x
      value: 4.1418
      objectReference: {fileID: 0}
    - target: {fileID: 7878350319992209165, guid: 4a55370ffcc4cf04b8aa04bb1765eafb, type: 3}
      propertyPath: m_LocalScale.y
      value: 4.1418
      objectReference: {fileID: 0}
    - target: {fileID: 7878350319992209165, guid: 4a55370ffcc4cf04b8aa04bb1765eafb, type: 3}
      propertyPath: m_LocalScale.z
      value: 4.1418
      objectReference: {fileID: 0}
    - target: {fileID: 7878350319992209165, guid: 4a55370ffcc4cf04b8aa04bb1765eafb, type: 3}
      propertyPath: m_LocalPosition.x
      value: 586.79
      objectReference: {fileID: 0}
    - target: {fileID: 7878350319992209165, guid: 4a55370ffcc4cf04b8aa04bb1765eafb, type: 3}
      propertyPath: m_LocalPosition.y
      value: 49.96
      objectReference: {fileID: 0}
    - target: {fileID: 7878350319992209165, guid: 4a55370ffcc4cf04b8aa04bb1765eafb, type: 3}
      propertyPath: m_LocalPosition.z
      value: 0
      objectReference: {fileID: 0}
    - target: {fileID: 7878350319992209165, guid: 4a55370ffcc4cf04b8aa04bb1765eafb, type: 3}
      propertyPath: m_LocalRotation.w
      value: 1
      objectReference: {fileID: 0}
    - target: {fileID: 7878350319992209165, guid: 4a55370ffcc4cf04b8aa04bb1765eafb, type: 3}
      propertyPath: m_LocalRotation.x
      value: 0
      objectReference: {fileID: 0}
    - target: {fileID: 7878350319992209165, guid: 4a55370ffcc4cf04b8aa04bb1765eafb, type: 3}
      propertyPath: m_LocalRotation.y
      value: 0
      objectReference: {fileID: 0}
    - target: {fileID: 7878350319992209165, guid: 4a55370ffcc4cf04b8aa04bb1765eafb, type: 3}
      propertyPath: m_LocalRotation.z
      value: 0
      objectReference: {fileID: 0}
    - target: {fileID: 7878350319992209165, guid: 4a55370ffcc4cf04b8aa04bb1765eafb, type: 3}
      propertyPath: m_LocalEulerAnglesHint.x
      value: 0
      objectReference: {fileID: 0}
    - target: {fileID: 7878350319992209165, guid: 4a55370ffcc4cf04b8aa04bb1765eafb, type: 3}
      propertyPath: m_LocalEulerAnglesHint.y
      value: 0
      objectReference: {fileID: 0}
    - target: {fileID: 7878350319992209165, guid: 4a55370ffcc4cf04b8aa04bb1765eafb, type: 3}
      propertyPath: m_LocalEulerAnglesHint.z
      value: 0
      objectReference: {fileID: 0}
    m_RemovedComponents: []
    m_RemovedGameObjects: []
    m_AddedGameObjects: []
    m_AddedComponents:
    - targetCorrespondingSourceObject: {fileID: -2253911629886400664, guid: 4a55370ffcc4cf04b8aa04bb1765eafb, type: 3}
      insertIndex: -1
      addedObject: {fileID: 2327556183988658182}
    - targetCorrespondingSourceObject: {fileID: -2253911629886400664, guid: 4a55370ffcc4cf04b8aa04bb1765eafb, type: 3}
      insertIndex: -1
      addedObject: {fileID: 6132378804593384554}
  m_SourcePrefab: {fileID: -8435245712485981826, guid: 4a55370ffcc4cf04b8aa04bb1765eafb, type: 3}
--- !u!1 &1905106511108625264 stripped
GameObject:
  m_CorrespondingSourceObject: {fileID: -2253911629886400664, guid: 4a55370ffcc4cf04b8aa04bb1765eafb, type: 3}
  m_PrefabInstance: {fileID: 8847377643131503640}
  m_PrefabAsset: {fileID: 0}
--- !u!61 &2327556183988658182
BoxCollider2D:
  m_ObjectHideFlags: 0
  m_CorrespondingSourceObject: {fileID: 0}
  m_PrefabInstance: {fileID: 0}
  m_PrefabAsset: {fileID: 0}
  m_GameObject: {fileID: 1905106511108625264}
  m_Enabled: 1
  m_Density: 1
  m_Material: {fileID: 0}
  m_IncludeLayers:
    serializedVersion: 2
    m_Bits: 0
  m_ExcludeLayers:
    serializedVersion: 2
    m_Bits: 0
  m_LayerOverridePriority: 0
  m_ForceSendLayers:
    serializedVersion: 2
    m_Bits: 4294967295
  m_ForceReceiveLayers:
    serializedVersion: 2
    m_Bits: 4294967295
  m_ContactCaptureLayers:
    serializedVersion: 2
    m_Bits: 4294967295
  m_CallbackLayers:
    serializedVersion: 2
    m_Bits: 4294967295
  m_IsTrigger: 1
  m_UsedByEffector: 0
  m_UsedByComposite: 0
  m_Offset: {x: -0.025000006, y: 0.76}
  m_SpriteTilingProperty:
    border: {x: 0, y: 0, z: 0, w: 0}
    pivot: {x: 0.53125, y: -0.103174604}
    oldSize: {x: 0.8, y: 1.26}
    newSize: {x: 0.8, y: 1.26}
    adaptiveTilingThreshold: 0.5
    drawMode: 0
    adaptiveTiling: 0
  m_AutoTiling: 0
  serializedVersion: 2
  m_Size: {x: 0.8, y: 1.26}
  m_EdgeRadius: 0
--- !u!114 &6132378804593384554
MonoBehaviour:
  m_ObjectHideFlags: 0
  m_CorrespondingSourceObject: {fileID: 0}
  m_PrefabInstance: {fileID: 0}
  m_PrefabAsset: {fileID: 0}
  m_GameObject: {fileID: 1905106511108625264}
  m_Enabled: 1
  m_EditorHideFlags: 0
  m_Script: {fileID: 11500000, guid: 1e1da0edee1d5964082492a89132b060, type: 3}
  m_Name: 
  m_EditorClassIdentifier: 
